<svg xmlns="http://www.w3.org/2000/svg" viewBox="0 0 2 3">
  <g class="l">
    <rect fill="#f80" x="0" y="0" height="1" width="1"/>
    <rect fill="#f80" x="0" y="1" height="1" width="1"/>
    <rect fill="#f80" x="0" y="2" height="1" width="1"/>
    <rect fill="#f80" x="1" y="2" height="1" width="1"/>
  </g>
</svg>
