<svg xmlns="http://www.w3.org/2000/svg" viewBox="0 0 3 2">
  <g class="z">
    <rect fill="#f00" x="0" y="0" height="1" width="1"/>
    <rect fill="#f00" x="1" y="0" height="1" width="1"/>
    <rect fill="#f00" x="1" y="1" height="1" width="1"/>
    <rect fill="#f00" x="2" y="1" height="1" width="1"/>
  </g>
</svg>
